bianfang_missions_1 = {
	slot = 1
	generic = no
	ai = yes 
	has_country_shield = yes
	potential = {
		OR = {
			tag = Y09
			AND = {
				tag = Z66
				was_tag = Y09
			}
		}
	}
	
	bianfang_fortress_with_a_state = {
		icon = mission_build_up_to_force_limit
		position = 1
		required_missions = { }
		
		provinces_to_highlight = {
			province_id = 4901
			NOT = {
				country_or_non_sovereign_subject_holds = ROOT
			}
		}
		
		trigger = {
			if = {
				limit = {
					AND = {
						4901 = { owned_by = Y03 }
						tag = Y09
					}
				}
				mil_power = 100
				treasury = 150
				OR = {
					Y03 = {
						has_opinion = {
							who = ROOT
							value = 100
						}
					}
				4901 = { country_or_non_sovereign_subject_holds = ROOT }
				}
			}
			else = {
				4901 = { country_or_non_sovereign_subject_holds = ROOT }
			}
		}
		
		effect = {
			if = {
				limit = {
					4901 = { owned_by = Y03 }
				}
				country_event = {
					id = bianfang.1
					days = 1
				}
			}
			else = {
				add_prestige = 10
			}
		}
	}

	bianfang_frontier_fortress = {
		icon = mission_build_up_to_force_limit
		position = 2
		required_missions = {
			bianfang_fortress_with_a_state
		}
		
		trigger = {
			4901 = { country_or_non_sovereign_subject_holds = ROOT }
			treasury = 250
			mil_power = 100
		}
		
		effect = {
			add_treasury = -250
			add_mil_power = -100
			4901 = {
				add_permanent_province_modifier = {
					name = bianfang_hulibao_fortified
					duration = -1
				}
			}
		}
	}
	
	bianfang_an_iron_fortress = {
		icon = mission_build_up_to_force_limit
		position = 4
		required_missions = {
			bianfang_frontier_fortress
			bianfang_greater_discipline
		}
		
		trigger = {
			4901 = {
				country_or_non_sovereign_subject_holds = ROOT
				base_manpower = 10
				has_production_building_trigger = yes
				has_manpower_building_trigger = yes
				province_has_current_tech_fort_trigger = yes
			}
			treasury = 250
		}
		
		effect = {
			4901 = {
				if = {
					limit = { has_building = fort_15th }
					add_building_construction = {
						building = fort_16th
						speed = 2
						cost = 2
					}
				}
				else_if = {
					limit = { has_building = fort_16th }
					add_building_construction = {
						building = fort_17th
						speed = 2
						cost = 2
					}
				}
				else_if = {
					limit = { has_building = fort_17th }
					add_building_construction = {
						building = fort_18th
						speed = 2
						cost = 2
					}
				}
			}
			4826 = {
				add_harimari_minority_size_effect = yes
				small_increase_of_harimari_tolerance_effect = yes
			}
		}
	}
	
	bianfang_dragons_banner = {
		icon = mission_build_up_to_force_limit
		position = 5
		required_missions = {
			bianfang_monstrous_drill
		}
		
		trigger = {
			army_professionalism = 0.4
			army_size = 60
			army_tradition = 40
			num_of_owned_provinces_with = {
				value = 25
				has_manpower_building_trigger = yes
			}
		}
		
		effect = {
			add_yearly_manpower = -1
			add_army_tradition = -10
			remove_country_modifier = bianfang_army_buff_2
			add_country_modifier = {
				name = bianfang_army_buff_3
				duration = -1
			}
		}
	}
}

bianfang_missions_2 = {
	slot = 2
	generic = no
	ai = yes 
	has_country_shield = yes
	potential = {
		OR = {
			tag = Y09
			AND = {
				tag = Z66
				was_tag = Y09
			}
		}
	}

	bianfang_an_opening = {
		icon = mission_build_up_to_force_limit
		position = 1
		required_missions = { }
		
		provinces_to_highlight = {
			owner = { has_reform = wulin }
		}
		
		trigger = {
			if = {
				limit = {
					any_known_country = { has_reform = wulin }
				}
				any_known_country = {
					AND = {
						has_reform = wulin
						is_at_war = yes
					}
				}
			}
			else = {
				army_size_percentage = 0.8
			}
		}
		
		effect = {
			add_country_modifier = {
				name = bianfang_western_expedition
				duration = 5475
			}
			gongtian_area = {
				limit = {
					NOT = { is_core = ROOT }
					NOT = { owned_by = ROOT }
				}
				add_permanent_claim = ROOT
			}
			heixinqiu_area = {
				limit = {
					NOT = { is_core = ROOT }
					NOT = { owned_by = ROOT }
				}
				add_permanent_claim = ROOT
			}
			aoshan_area = {
				limit = {
					NOT = { is_core = ROOT }
					NOT = { owned_by = ROOT }
				}
				add_permanent_claim = ROOT
			}
		}
	}
	
	bianfang_subjugate_the_monks = {
		icon = mission_build_up_to_force_limit
		position = 2
		required_missions = {
			bianfang_an_opening
		}
		
		provinces_to_highlight = {
			OR = {
				area = gongtian_area
				area = heixinqiu_area
				area = aoshan_area
			}
			NOT = {
				country_or_non_sovereign_subject_holds = ROOT
			}
		}
		
		trigger = {
			gongtian_area = {
				type = all
				country_or_non_sovereign_subject_holds = ROOT
			}
			heixinqiu_area = {
				type = all
				country_or_non_sovereign_subject_holds = ROOT
			}
			aoshan_area = {
				type = all
				country_or_non_sovereign_subject_holds = ROOT
			}
		}
		
		effect = {
			country_event = { id = bianfang.11 }
		}
	}
	
	bianfang_greater_discipline = {
		icon = mission_build_up_to_force_limit
		position = 3
		required_missions = {
			bianfang_subjugate_the_monks
			bianfang_frontier_fortress
			bianfang_down_the_yan
		}
		
		trigger = {
			num_of_infantry = 30
			army_professionalism = 0.2
			num_of_owned_provinces_with = {
				value = 10
				has_manpower_building_trigger = yes
			}
		}
		
		effect = {
			add_country_modifier = {
				name = bianfang_army_buff_1
				duration = -1
			}
			add_yearly_manpower = 1
		}
	}
	
	bianfang_monstrous_drill = {
		icon = mission_build_up_to_force_limit
		position = 4
		required_missions = {
			bianfang_greater_discipline
		}
		
		trigger = {
			if = {
				limit = {
					AND = {
						NOT = {
							exists = R62
							exists = Y58
						}
					}
				}
				custom_trigger_tooltip = {
					tooltip = bianfang_has_hob_majority_minority_tt #localise this
					any_owned_province = {
						OR = {
							has_province_modifier = hobgoblin_minority_oppressed_small
							has_province_modifier = hobgoblin_minority_oppressed_large
							has_province_modifier = hobgoblin_minority_coexisting_small
							has_province_modifier = hobgoblin_minority_coexisting_large
							has_province_modifier = hobgoblin_minority_integrated_small
							has_province_modifier = hobgoblin_minority_integrated_large
							has_province_modifier = hobgoblin_majority_oppressed
							has_province_modifier = hobgoblin_majority_coexisting
							has_province_modifier = hobgoblin_majority_integrated
						}
					}
				}
			}
			else = {
				OR = {
					R62 = {
						has_spy_network_from = {
							who = ROOT
							value = 50
						}
					}
					Y58 = {
						has_spy_network_from = {
							who = ROOT
							value = 50
						}
					}
				}
			}
		}
		
		effect = {
			medium_increase_of_hobgoblin_tolerance_effect = yes
			4826 = { add_hobgoblin_minority_size_effect = yes }
			add_army_professionalism = 0.05
			remove_country_modifier = bianfang_army_buff_1
			add_country_modifier = {
				name = bianfang_army_buff_2
				duration = -1
			}
		}
	}
	
	bianfang_matchlock_warfare = {
		icon = mission_build_up_to_force_limit
		position = 5
		required_missions = {
			bianfang_monstrous_drill
		}
		
		trigger = {
			num_of_owned_provinces_with = {
				value = 2
				trade_goods = iron
				base_production = 8
				has_production_building_trigger = yes
			}
			num_of_infantry = 40
			years_of_income = 1
		}
		
		effect = {
			add_years_of_income = -1
			add_country_modifier = {
				name = bianfang_matchlock_adoption
				duration = 7300
			}
		}
	}
}

bianfang_missions_3 = {
	slot = 3
	generic = no
	ai = yes 
	has_country_shield = yes
	potential = {
		OR = {
			tag = Y09
			AND = {
				tag = Z66
				was_tag = Y09
			}
		}
	}

	bianfang_increase_conscription = {
		icon = mission_build_up_to_force_limit
		position = 1
		required_missions = { }
	
		trigger = {
			if = {
				limit = { ai = yes }
				army_size_percentage = 0.6
			}
			else = {
				army_size_percentage = 0.8
			}
			num_of_owned_provinces_with = {
				value = 5
				base_manpower = 5
			}
		}
		
		effect = {
			bianfang_area = {
				limit = {
					NOT = { is_core = ROOT }
					NOT = { owned_by = ROOT }
				}
				add_permanent_claim = ROOT
			}
			banyan_area = {
				limit = {
					NOT = { is_core = ROOT }
					NOT = { owned_by = ROOT }
				}
				add_permanent_claim = ROOT
			}
			zujiang_area = {
				limit = {
					NOT = { is_core = ROOT }
					NOT = { owned_by = ROOT }
				}
				add_permanent_claim = ROOT
			}
		add_country_modifier = {
				name = bianfang_marching_down_the_yan
				duration = 9125
			}
		}
	}
	
	bianfang_down_the_yan = {
		icon = mission_build_up_to_force_limit
		position = 2
		required_missions = {
			bianfang_increase_conscription
		}
		
		provinces_to_highlight = {
			OR = {
				area = bianfang_area
				area = banyan_area
				area = zujiang_area
			}
			NOT = {
				country_or_non_sovereign_subject_holds = ROOT
			}
		}
		
		trigger = {
			bianfang_area = {
				type = all
				country_or_non_sovereign_subject_holds = ROOT
			}
			banyan_area = {
				type = all
				country_or_non_sovereign_subject_holds = ROOT
			}
			zujiang_area = {
				type = all
				country_or_non_sovereign_subject_holds = ROOT
			}
		}
		
		effect = {
			zhinmuc_area = {
				limit = {
					NOT = { is_core = ROOT }
					NOT = { owned_by = ROOT }
				}
				add_permanent_claim = ROOT
			}
			yanchung_area = {
				limit = {
					NOT = { is_core = ROOT }
					NOT = { owned_by = ROOT }
				}
				add_permanent_claim = ROOT
			}
			kansoete_area = {
				limit = {
					NOT = { is_core = ROOT }
					NOT = { owned_by = ROOT }
				}
				add_permanent_claim = ROOT
			}
			country_event = { id = bianfang.15 }
		}
	}
	
	bianfang_storm_the_palaces = {
		icon = mission_build_up_to_force_limit
		position = 3
		required_missions = {
			bianfang_down_the_yan
		}
		
		provinces_to_highlight = {
			OR = {
				area = zhinmuc_area
				area = yanchung_area
				area = kansoete_area
			}
			NOT = {
				country_or_non_sovereign_subject_holds = ROOT
			}
		}
		
		trigger = {
			zhinmuc_area = {
				type = all
				country_or_non_sovereign_subject_holds = ROOT
			}
			yanchung_area = {
				type = all
				country_or_non_sovereign_subject_holds = ROOT
			}
			kansoete_area = {
				type = all
				country_or_non_sovereign_subject_holds = ROOT
			}
		}
		
		effect = {
			add_country_modifier = {
				name = bianfang_yan_river_secured
				duration = 5475
			}
			jinqiu_area = {
				limit = {
					NOT = { is_core = ROOT }
					NOT = { owned_by = ROOT }
				}
				add_permanent_claim = ROOT
			}
			balrijin_area = {
				limit = {
					NOT = { is_core = ROOT }
					NOT = { owned_by = ROOT }
				}
				add_permanent_claim = ROOT
			}
			#Add Fate of the Eunuchs tyrant event
		}
	}
	
	bianfang_great_cities = {
		icon = mission_build_up_to_force_limit
		position = 4
		required_missions = {
			bianfang_storm_the_palaces
		}
		
		provinces_to_highlight = {
			AND = {
				owned_by = ROOT
				has_terrain = city_terrain
				NOT = { development = 30 }
			}
		}
		
		trigger = {
			custom_trigger_tooltip = {
				tooltip = bianfang_cities_30_dev_tt
				any_owned_province = {
					has_terrain = city_terrain
					development = 30
					has_tax_building_trigger = yes
					has_trade_building_trigger = yes
				}
			}
		}

		effect = {
			4826 = {
				add_province_modifier = {
					name = bianfang_urban_population_influx
					duration = 3650
				}
			}
			add_country_modifier = {
				name = bianfang_urbanization
				duration = 9125
			}
		}
	}
}

bianfang_missions_4 = {
	slot = 4
	generic = no
	ai = yes 
	has_country_shield = yes
	potential = {
		OR = {
			tag = Y09
			AND = {
				tag = Z66
				was_tag = Y09
			}
		}
	}

	bianfang_court_of_the_eunuch_king = {
		icon = mission_build_up_to_force_limit
		position = 1
		required_missions = { }
		
		provinces_to_highlight = {
			AND = {
				province_id = 4893
				NOT = {
					country_or_non_sovereign_subject_holds = ROOT
				}
			}
		}
		
		trigger = {
			OR = {
				AND = {
					alliance_with = Y21
					Y21 = {
						has_opinion = {
							who = ROOT
							value = 150
						}
					}
				}
				AND = {
					Y21 = { exists = no }
					4893 = {
						country_or_non_sovereign_subject_holds = ROOT
					}
				}
				Y21 = { is_subject_of = ROOT }
			}
		}
		
		effect = {
			if = {
				limit = {
					Y21 = { exists = yes }
				}
				add_trust = {
					who = Y21
					value = 15
					mutual = yes
				}
			}
			guwocang_area = {
				limit = {
					NOT = { is_core = ROOT }
					NOT = { owned_by = ROOT }
				}
				add_permanent_claim = ROOT
			}
			wangglam_area = {
				limit = {
					NOT = { is_core = ROOT }
					NOT = { owned_by = ROOT }
				}
				add_permanent_claim = ROOT
			}
			tunghoin_area = {
				limit = {
					NOT = { is_core = ROOT }
					NOT = { owned_by = ROOT }
				}
				add_permanent_claim = ROOT
			}
		}
	}
	
	bianfang_xiyun_reunification = {
		icon = mission_build_up_to_force_limit
		position = 3
		required_missions = {
			bianfang_court_of_the_eunuch_king
		}
		
		provinces_to_highlight = {
			AND = {
				is_core = Y21
				NOT = { owned_by = Y21 }
			}
		}
		
		trigger = {
			Y21 = {
				alliance_with = ROOT
				all_core_province = {
					owned_by = Y21
				}
			}
		}
		
		effect = {
			jithoa_area = {
				limit = {
					NOT = { is_core = ROOT }
					NOT = { owned_by = ROOT }
				}
				add_permanent_claim = ROOT
			}
			create_subject = {
				subject_type = autonomous_vassal
				subject = Y21
			}
		}
	}
	
	bianfang_one_king = {
		icon = mission_build_up_to_force_limit
		position = 4
		required_missions = {
			bianfang_xiyun_reunification
		}
		
		provinces_to_highlight = {
			province_id = 4893
		}
		
		trigger = {
			4893 = {
				num_of_units_in_province = {
					who = ROOT
					amount = 10
				}
			}
			Y21 = {
				has_spy_network_from = {
					who = ROOT
					value = 60
				}
			}
			Y21 = {
				NOT = { num_of_cities = 15 }
			}
		}
		
		effect = {
			country_event = { id = bianfang.5 }
		}
			
	}
	
	bianfang_imperial_capital = {
		icon = mission_build_up_to_force_limit
		position = 5
		required_missions = {
			bianfang_great_cities
			bianfang_waypoint_metropolis
		}
		
		provinces_to_highlight = {
			AND = {
				province_id = 4826
				NOT = {
					AND = {
						owned_by = ROOT
						development = 45
					}
				}
			}
		}
	
		trigger = {
			owns_core_province = 4826
			4826 = {
				development = 45
			}
		}
		
		effect = {
			add_prestige = 15
			add_splendor = 200
			4826 = {
				add_province_modifier = {
					name = bianfang_capital_1
					duration = -1
				}
			}
		}
	}
}

bianfang_missions_5 = {
	slot = 5
	generic = no
	ai = yes 
	has_country_shield = yes
	potential = {
		OR = {
			tag = Y09
			AND = {
				tag = Z66
				was_tag = Y09
			}
		}
	}

	bianfang_facing_zyuhungwok = {
		icon = mission_build_up_to_force_limit
		position = 2
		required_missions = {
			bianfang_court_of_the_eunuch_king
		}
		
		provinces_to_highlight = {
			OR = {
				area = guwocang_area
				area = wangglam_area
				area = tunghoin_area
			}
			NOT = {
				country_or_non_sovereign_subject_holds = ROOT
			}
		}
		
		trigger = {
			guwocang_area = {
				type = all
				country_or_non_sovereign_subject_holds = ROOT
			}
			wangglam_area = {
				type = all
				country_or_non_sovereign_subject_holds = ROOT
			}
			tunghoin_area = {
				type = all
				country_or_non_sovereign_subject_holds = ROOT
			}
		}
		
		effect = {
			add_country_modifier = {
				name = bianfang_the_tea_harvest
				duration = 9125
			}
		}
	}
	
	bianfang_imperial_shipyard = {
		icon = mission_build_up_to_force_limit
		position = 3
		required_missions = {
			bianfang_facing_zyuhungwok
		}
		
		provinces_to_highlight = {
			AND = {
				province_id = 4884
				NOT = {
					AND = {
						owned_by = ROOT
						development = 25
						has_dock_building_trigger = yes
						has_trade_building_trigger = yes
					}
				}
			}
		}
		
		trigger = {
			owns_core_province = 4884
			4884 = {
				development = 25
				has_dock_building_trigger = yes
				has_trade_building_trigger = yes
				if = {
					limit = { has_dlc = "Dharma" }
					province_has_center_of_trade_of_level = 2
				}
			}
		}
		
		effect = {
			4884 = {
				change_religion = high_philosophy
				add_base_tax = 1
				add_base_production = 1
				add_base_manpower = 1
				add_permanent_province_modifier = {
					name = bianfang_imperial_shipyard
					duration = -1
				}
				change_province_name = "Tongzhegou"
			}
		}
	}
	
	bianfang_waypoint_metropolis = {
		icon = mission_build_up_to_force_limit
		position = 4
		required_missions = {
			bianfang_imperial_shipyard
		}
		
		provinces_to_highlight = {
			AND = {
				province_id = 4951
				NOT = {
					AND = {
						owned_by = ROOT
						development = 25
						has_dock_building_trigger = yes
						has_trade_building_trigger = yes
					}
				}
			}
		}
		
		trigger = {
			owns_core_province = 4951
			4951 = {
				development = 25
				has_trade_building_trigger = yes
				has_tax_building_trigger = yes
				if = {
					limit = { has_dlc = "Dharma" }
					province_has_center_of_trade_of_level = 2
				}
			}
		}
		effect = {
			4951 = {
				change_religion = high_philosophy
				add_base_tax = 1
				add_base_production = 1
				add_base_manpower = 1
			}
			4826 = {
				add_province_modifier = {
					name = bianfang_coastal_trade_influx
					duration = 3650
				}
			}
		}
	}
}

#LIANG PORTION

# bianfang_liang_missions_1 = {
	# slot = 1
	# generic = no
	# ai = yes 
	# has_country_shield = yes
	# potential = {
		# tag = Z66
		# was_tag = Y09
	# }
	
	# bianfang_imperial_army_restructuring = {
		# icon = mission_build_up_to_force_limit
		# position = 6
		# required_missions = {
			# bianfang_dragons_banner
			# bianfang_matchlock_warfare
		# }
		
		
		# trigger = {
			
		# }
		
		# effect = {
			
		# }
	# }
	
	# bianfang_perfect_army = {
		# icon = mission_build_up_to_force_limit
		# position = 8
		# required_missions = {
			# bianfang_imperial_army_restructuring
			# bianfang_all_under_the_emperor
		# }
		
		
		# trigger = {
			
		# }
		
		# effect = {
			
		# }
	# }
	
	# bianfang_the_lawless_west = {
		# icon = mission_build_up_to_force_limit
		# position = 9
		# required_missions = {
			# bianfang_perfect_army
		# }
		
		
		# trigger = {
			
		# }
		
		# effect = {
			
		# }
	# }
	
	# bianfang_our_greatest_foe = {
		# icon = mission_build_up_to_force_limit
		# position = 10
		# required_missions = {
			# bianfang_the_lawless_west
			# bianfang_ramp_up_recruitment
		# }
		
		
		# trigger = {
			
		# }
		
		# effect = {
			
		# }
	# }
	
	# bianfang_final_command = {
		# icon = mission_build_up_to_force_limit
		# position = 13
		# required_missions = {
			# bianfang_our_greatest_foe
		# }
		
		
		# trigger = {
			
		# }
		
		# effect = {
			
		# }
	# }
	
	# bianfang_restore_desecrated_temples = {
		# icon = mission_build_up_to_force_limit
		# position = 14
		# required_missions = {
			# bianfang_final_command
		# }
		
		
		# trigger = {
			
		# }
		
		# effect = {
			
		# }
	# }
# }

# bianfang_liang_missions_2 = {
	# slot = 2
	# generic = no
	# ai = yes 
	# has_country_shield = yes
	# potential = {
		# tag = Z66
		# was_tag = Y09
	# }
	
	# bianfang_one_people_united = {
		# icon = mission_build_up_to_force_limit
		# position = 6
		# required_missions = {
			# bianfang_imperial_capital
		# }
		
		
		# trigger = {
			
		# }
		
		# effect = {
			
		# }
	# }
	
	# bianfang_ramp_up_recruitment = {
		# icon = mission_build_up_to_force_limit
		# position = 9
		# required_missions = {
			# bianfang_liang_economic_boom
		# }
		
		
		# trigger = {
			
		# }
		
		# effect = {
			
		# }
	# }
	
	# bianfang_pathetic_barbarism = {
		# icon = mission_build_up_to_force_limit
		# position = 10
		# required_missions = {
			# bianfang_ramp_up_recruitment
		# }
		
		
		# trigger = {
			
		# }
		
		# effect = {
			
		# }
	# }
	
	# bianfang_monuments_to_insignificance = {
		# icon = mission_build_up_to_force_limit
		# position = 11
		# required_missions = {
			# bianfang_pathetic_barbarism
		# }
		
		
		# trigger = {
			
		# }
		
		# effect = {
			
		# }
	# }
	
	# bianfang_yanification_steppes = {
		# icon = mission_build_up_to_force_limit
		# position = 12
		# required_missions = {
			# bianfang_our_superior_culture
		# }
		
		
		# trigger = {
			
		# }
		
		# effect = {
			# upgrade_yanification_effect = yes
			# set_country_flag = yanification_north_haless
		# }
	# }
	
	# bianfang_yanification_shamakhad = {
		# icon = mission_build_up_to_force_limit
		# position = 13
		# required_missions = {
			# bianfang_yanification_xianjie
		# }
		
		
		# trigger = {
			
		# }
		
		# effect = {
			# upgrade_yanification_effect = yes
		# }
	# }
	
	# bianfang_rebuild_shamakhad = {
		# icon = mission_build_up_to_force_limit
		# position = 14
		# required_missions = {
			# bianfang_final_command
		# }
		
		
		# trigger = {
			
		# }
		
		# effect = {
			
		# }
	# }
	
	# bianfang_risen_from_ruins = {
		# icon = mission_build_up_to_force_limit
		# position = 15
		# required_missions = {
			# bianfang_rebuild_shamakhad
		# }
		
		
		# trigger = {
			
		# }
		
		# effect = {
			
		# }
	# }
# }

# bianfang_liang_missions_3 = {
	# slot = 3
	# generic = no
	# ai = yes 
	# has_country_shield = yes
	# potential = {
		# tag = Z66
		# was_tag = Y09
	# }
	
	# bianfang_the_hills_have_eyes = {
		# icon = mission_build_up_to_force_limit
		# position = 6
		# required_missions = {
			# bianfang_imperial_capital
		# }
		
		
		# trigger = {
			
		# }
		
		# effect = {
			
		# }
	# }
	
	# bianfang_all_under_the_emperor = {
		# icon = mission_build_up_to_force_limit
		# position = 7
		# required_missions = {
			# bianfang_imperial_army_restructuring
			# bianfang_one_people_united
			# bianfang_the_hills_have_eyes
			# bianfang_city_of_temples
			# bianfang_cries_of_freedom
		# }
		
		
		# trigger = {
			
		# }
		
		# effect = {
			
		# }
	# }
	
	# bianfang_liang_economic_boom = {
		# icon = mission_build_up_to_force_limit
		# position = 8
		# required_missions = {
			# bianfang_all_under_the_emperor
		# }
		
		
		# trigger = {
			
		# }
		
		# effect = {
			
		# }
	# }
	
	# bianfang_yan_population_boom = {
		# icon = mission_build_up_to_force_limit
		# position = 10
		# required_missions = {
			# bianfang_liang_economic_boom
		# }
		
		
		# trigger = {
			
		# }
		
		# effect = {
			
		# }
	# }
	
	# bianfang_our_superior_culture = {
		# icon = mission_build_up_to_force_limit
		# position = 11
		# required_missions = {
			# bianfang_yan_population_boom
		# }
		
		
		# trigger = {
			
		# }
		
		# effect = {
			# set_country_flag = yanification_activated
		# }
	# }
	
	# bianfang_yanification_xianjie = {
		# icon = mission_build_up_to_force_limit
		# position = 12
		# required_missions = {
			# bianfang_our_superior_culture
		# }
		
		
		# trigger = {
			
		# }
		
		# effect = {
			# upgrade_yanification_effect = yes
		# }
	# }
	
	# bianfang_yanification_bomdan = {
		# icon = mission_build_up_to_force_limit
		# position = 13
		# required_missions = {
			# bianfang_yanification_kai
		# }
		
		
		# trigger = {
			
		# }
		
		# effect = {
			# upgrade_yanification_effect = yes
		# }
	# }
	
	# # bianfang_yanification_rahen = { #PUT THIS IN THE FINAL BLOC OF MISSIONS
		# # icon = mission_build_up_to_force_limit
		# # position = 14
		# # required_missions = {
			# # bianfang_yanification_bomdan
			# # bianfang_yanification_shamakhad
		# # }
		
		
		# # trigger = {
			
		# # }
		
		# # effect = {
			# # upgrade_yanification_effect = yes
		# # }
	# # }
	
	# # bianfang_yanification_final = {
		# # icon = mission_build_up_to_force_limit
		# # position = 15
		# # required_missions = {
			# # bianfang_yanification_rahen
		# # }
		
		
		# # trigger = {
			
		# # }
		
		# # effect = {
			
		# # }
	# # }
	
	# bianfang_an_army_of_millions = {
		# icon = mission_build_up_to_force_limit
		# position = 16
		# required_missions = {
			# bianfang_risen_from_ruins
			# bianfang_man_the_forts
		# }
		
		
		# trigger = {
			
		# }
		
		# effect = {
			
		# }
	# }
# }

# bianfang_liang_missions_4 = {
	# slot = 4
	# generic = no
	# ai = yes 
	# has_country_shield = yes
	# potential = {
		# tag = Z66
		# was_tag = Y09
	# }
	
	# bianfang_city_of_temples = {
		# icon = mission_build_up_to_force_limit
		# position = 6
		# required_missions = {
			# bianfang_imperial_capital
		# }
		
		
		# trigger = {
			
		# }
		
		# effect = {
			
		# }
	# }
	
	# bianfang_the_jade_seal_fleet = {
		# icon = mission_build_up_to_force_limit
		# position = 9
		# required_missions = {
			# bianfang_liang_economic_boom
		# }
		
		
		# trigger = {
			
		# }
		
		# effect = {
			
		# }
	# }
	
	# bianfang_townships_and_dwarf_kings = {
		# icon = mission_build_up_to_force_limit
		# position = 11
		# required_missions = {
			# bianfang_kudet_kai_foothold
		# }
		
		
		# trigger = {
			
		# }
		
		# effect = {
			
		# }
	# }
	
	# bianfang_yanification_kai = {
		# icon = mission_build_up_to_force_limit
		# position = 12
		# required_missions = {
			# bianfang_our_superior_culture
		# }
		
		
		# trigger = {
			
		# }
		
		# effect = {
			# upgrade_yanification_effect = yes
		# }
	# }
	
	# bianfang_yanification_lupulan = {
		# icon = mission_build_up_to_force_limit
		# position = 13
		# required_missions = {
			# bianfang_yanification_kai
		# }
		
		
		# trigger = {
			
		# }
		
		# effect = {
			# upgrade_yanification_effect = yes
		# }
	# }
	
	# bianfang_push_to_the_kharunyana = {
		# icon = mission_build_up_to_force_limit
		# position = 14
		# required_missions = {
			# bianfang_no_longer_defiant
		# }
		
		
		# trigger = {
			
		# }
		
		# effect = {
			
		# }
	# }
	
	# bianfang_man_the_forts = {
		# icon = mission_build_up_to_force_limit
		# position = 15
		# required_missions = {
			# bianfang_push_to_the_kharunyana
		# }
		
		
		# trigger = {
			
		# }
		
		# effect = {
			
		# }
	# }
# }

# bianfang_liang_missions_5 = {
	# slot = 5
	# generic = no
	# ai = yes 
	# has_country_shield = yes
	# potential = {
		# tag = Z66
		# was_tag = Y09
	# }
	
	# bianfang_cries_of_freedom = {
		# icon = mission_build_up_to_force_limit
		# position = 6
		# required_missions = {
			# bianfang_imperial_capital
		# }
		
		
		# trigger = {
			
		# }
		
		# effect = {
			
		# }
	# }
	
	# bianfang_care_for_the_high_temples = {
		# icon = mission_build_up_to_force_limit
		# position = 8
		# required_missions = {
			# bianfang_all_under_the_emperor
		# }
		
		
		# trigger = {
			
		# }
		
		# effect = {
			
		# }
	# }
	
	# bianfang_kudet_kai_foothold = {
		# icon = mission_build_up_to_force_limit
		# position = 10
		# required_missions = {
			# bianfang_the_jade_seal_fleet
		# }
		
		
		# trigger = {
			
		# }
		
		# effect = {
			
		# }
	# }
	
	# bianfang_no_longer_defiant = {
		# icon = mission_build_up_to_force_limit
		# position = 13
		# required_missions = {
			# bianfang_kudet_kai_foothold
		# }
		
		
		# trigger = {
			
		# }
		
		# effect = {
			
		# }
	# }
	
	# bianfang_monsoon_season = {
		# icon = mission_build_up_to_force_limit
		# position = 14
		# required_missions = {
			# bianfang_no_longer_defiant
		# }
		
		
		# trigger = {
			
		# }
		
		# effect = {
			
		# }
	# }
	
	# bianfang_jahers_furthest_city = {
		# icon = mission_build_up_to_force_limit
		# position = 15
		# required_missions = {
			# bianfang_no_longer_defiant
		# }
		
		
		# trigger = {
			
		# }
		
		# effect = {
			
		# }
	# }
# }

#Conquest of Rahen missions